Silge-PCA
…
cid <- Sys.getenv('SPOTIFY_CLIENT_ID')
cs  <- Sys.getenv('SPOTIFY_CLIENT_SECRET')

access_token <- get_spotify_access_token(client_id = cid,
                                         client_secret = cs)

playlist_features <- get_playlist_audio_features("tmock1923", "7esD007S7kzeSwVtcH9GFe")

playlist_features

## # A tibble: 250 x 61
##    playlist_id playlist_name playlist_img playlist_owner_~ playlist_owner_~
##    <chr>       <chr>         <chr>        <chr>            <chr>           
##  1 7esD007S7k~ Top 250 Hiph~ https://mos~ tmock1923        tmock1923       
##  2 7esD007S7k~ Top 250 Hiph~ https://mos~ tmock1923        tmock1923       
##  3 7esD007S7k~ Top 250 Hiph~ https://mos~ tmock1923        tmock1923       
##  4 7esD007S7k~ Top 250 Hiph~ https://mos~ tmock1923        tmock1923       
##  5 7esD007S7k~ Top 250 Hiph~ https://mos~ tmock1923        tmock1923       
##  6 7esD007S7k~ Top 250 Hiph~ https://mos~ tmock1923        tmock1923       
##  7 7esD007S7k~ Top 250 Hiph~ https://mos~ tmock1923        tmock1923       
##  8 7esD007S7k~ Top 250 Hiph~ https://mos~ tmock1923        tmock1923       
##  9 7esD007S7k~ Top 250 Hiph~ https://mos~ tmock1923        tmock1923       
## 10 7esD007S7k~ Top 250 Hiph~ https://mos~ tmock1923        tmock1923       
## # ... with 240 more rows, and 56 more variables: danceability <dbl>,
## #   energy <dbl>, key <int>, loudness <dbl>, mode <int>, speechiness <dbl>,
## #   acousticness <dbl>, instrumentalness <dbl>, liveness <dbl>, valence <dbl>,
## #   tempo <dbl>, track.id <chr>, analysis_url <chr>, time_signature <int>,
## #   added_at <chr>, is_local <lgl>, primary_color <lgl>, added_by.href <chr>,
## #   added_by.id <chr>, added_by.type <chr>, added_by.uri <chr>,
## #   added_by.external_urls.spotify <chr>, track.artists <list>,
## #   track.available_markets <list>, track.disc_number <int>,
## #   track.duration_ms <int>, track.episode <lgl>, track.explicit <lgl>,
…
ranking_ids <- rankings %>%
  mutate(
    search_query = paste(title, artist),
    search_query = str_to_lower(search_query),
    search_query = str_remove(search_query, "ft.*$")
  ) %>%
  mutate(id = map_chr(search_query, possibly(pull_id, NA_character_)))

ranking_ids %>%
  select(title, artist, id)

## # A tibble: 311 x 3
##    title                  artist                            id                  
##    <chr>                  <chr>                             <chr>               
##  1 Juicy                  The Notorious B.I.G.              5ByAIlEEnxYdvpnezg7~
##  2 Fight The Power        Public Enemy                      1yo16b3u0lptm6Cs7lx~
##  3 Shook Ones (Part II)   Mobb Deep                         4nASzyRbzL5qZQuOPjQ~
##  4 The Message            Grandmaster Flash & The Furious ~ 5DuTNKFEjJIySAyJH1y~
##  5 Nuthin But A G Tha~ Dr Dre ft. Snoop Doggy Dogg       3j3mo94s22aHdrFqede~
##  6 C.R.E.A.M.             Wu-Tang Clan                      119c93MHjrDLJTApCVG~
##  7 93 Til Infinity       Souls of Mischief                 0PV1TFUMTBrDETzW6KQ~
##  8 Passin Me By          The Pharcyde                      4G3dZN9o3o2X4VKwt4C~
##  9 N.Y. State Of Mind     Nas                               5zwz05jkQVT68CjUpPw~
## 10 Dear Mama              2Pac                              6tDxrq4FxEL2q15y37t~
## # ... with 301 more rows
…
ranking_df <- ranking_ids %>%
  bind_cols(ranking_features %>%
              select(audio_features) %>%
              unnest(audio_features)) %>%
  select(title, artist, points, year, danceability:tempo) %>%
  na.omit()

ranking_df

## # A tibble: 293 x 15
##    title artist points  year danceability energy   key loudness  mode
##    <chr> <chr>   <dbl> <dbl>        <dbl>  <dbl> <int>    <dbl> <int>
##  1 Juicy The N~    140  1994        0.889  0.816     9    -4.67     1
##  2 Figh~ Publi~    100  1989        0.797  0.582     2   -13.0      1
##  3 Shoo~ Mobb ~     94  1995        0.637  0.878     6    -5.51     1
##  4 The ~ Grand~     90  1982        0.947  0.607    10   -10.6      0
##  5 Nuth~ Dr Dr~     84  1992        0.766  0.559    11    -7.03     0
##  6 C.R.~ Wu-Ta~     62  1993        0.479  0.549    11   -10.6      0
##  7 93 ~ Souls~     50  1993        0.59   0.672     1   -11.8      1
##  8 Pass~ The P~     48  1992        0.759  0.756     4    -8.14     0
##  9 N.Y.~ Nas        46  1994        0.665  0.91      6    -4.68     0
## 10 Dear~ 2Pac       42  1995        0.773  0.54      6    -7.12     1
## # ... with 283 more rows, and 6 more variables: speechiness <dbl>,
## #   acousticness <dbl>, instrumentalness <dbl>, liveness <dbl>, valence <dbl>,
## #   tempo <dbl>
…
juice(ranking_prep)

## # A tibble: 293 x 8
##    title          artist              points     PC1    PC2    PC3    PC4    PC5
##    <fct>          <fct>                <dbl>   <dbl>  <dbl>  <dbl>  <dbl>  <dbl>
##  1 Juicy          The Notorious B.I.~   4.94 -0.904   1.22  -0.964  0.629 -1.21 
##  2 Fight The Pow~ Public Enemy          4.61 -0.888  -1.45   0.581  0.684  1.84 
##  3 Shook Ones (P~ Mobb Deep             4.54  0.0894  1.23  -0.769  0.737  0.168
##  4 The Message    Grandmaster Flash ~   4.50 -3.44    0.122 -0.122 -0.357  0.334
##  5 Nuthin But A~ Dr Dre ft. Snoop D~   4.43 -3.10   -1.85   1.91  -5.89  -5.26 
##  6 C.R.E.A.M.     Wu-Tang Clan          4.13  0.151  -2.15  -2.25  -0.161 -2.47 
##  7 93 Til Infin~ Souls of Mischief     3.91  0.413  -0.746 -0.450  2.18  -0.999
##  8 Passin Me By  The Pharcyde          3.87 -0.974   0.307 -0.616 -0.282  1.15 
##  9 N.Y. State Of~ Nas                   3.83 -0.739   2.04  -1.28  -0.668  0.705
## 10 Dear Mama      2Pac                  3.74 -0.202  -0.805  1.17   0.101 -0.107
## # ... with 283 more rows
…
